[2016-09-30T23:01:42.682] debug2: Performing purge of old job records
[2016-09-30T23:01:42.683] debug:  sched: Running job scheduler
[2016-09-30T23:01:42.683] debug2: Performing full system state save
[2016-09-30T23:01:44.003] debug:  slurmdbd: DBD_RC is -1 from DBD_FLUSH_JOBS(1408): (null)
[2016-09-30T23:01:44.751] debug2: Sending cpu count of 22 for cluster
[2016-09-30T23:01:44.792] debug:  slurmdbd: Issue with call DBD_CLUSTER_CPUS(1407): 4294967295(This cluster hasn't been added to accounting yet)
[2016-09-30T23:01:46.792] debug2: Testing job time limits and checkpoints
[2016-09-30T23:01:47.005] debug3: Writing job id 940 to header record of job_state file
[2016-09-30T23:02:03.003] debug:  slurmdbd: DBD_RC is -1 from DBD_FLUSH_JOBS(1408): (null)
[2016-09-30T23:02:16.582] Terminate signal (SIGINT or SIGTERM) received
[2016-09-30T23:02:16.582] debug:  sched: slurmctld terminating
[2016-09-30T23:02:16.583] debug3: _slurmctld_rpc_mgr shutting down
[2016-09-30T23:02:16.798] Saving all slurm state
[2016-09-30T23:02:16.801] debug3: Writing job id 940 to header record of job_state file
[2016-09-30T23:02:16.881] debug3: _slurmctld_background shutting down
[2016-09-30T23:02:16.952] slurmdbd: saved 1846 pending RPCs
[2016-09-30T23:02:17.024] Unable to remove pidfile '/var/run/slurmctld.pid': Permission denied
[2016-09-30T23:02:16.582] killing old slurmctld[20343]
[2016-09-30T23:02:17.028] Job accounting information stored, but details not gathered
[2016-09-30T23:02:17.028] slurmctld version 2.6.9 started on cluster graph
[2016-09-30T23:02:17.029] debug3: Trying to load plugin /usr/local/lib/slurm/crypto_munge.so
[2016-09-30T23:02:17.052] Munge cryptographic signature plugin loaded
[2016-09-30T23:02:17.052] debug3: Success.
[2016-09-30T23:02:17.052] debug3: Trying to load plugin /usr/local/lib/slurm/gres_gpu.so
[2016-09-30T23:02:17.060] debug:  init: Gres GPU plugin loaded
[2016-09-30T23:02:17.060] debug3: Success.
[2016-09-30T23:02:20.632] debug3: in the service_connection
[2016-09-30T23:02:20.634] debug2: got this type of message 1001
[2016-09-30T23:02:20.634] debug2: Processing RPC: REQUEST_NODE_REGISTRATION_STATUS
[2016-09-30T23:02:20.635] debug3: CPUs=22 Boards=1 Sockets=22 Cores=1 Threads=1 Memory=145060 TmpDisk=78723 Uptime=4210729
[2016-09-30T23:02:20.636] debug4: found jobid = 930, stepid = 4294967294
[2016-09-30T23:02:20.637] [930] Called _msg_socket_accept
[2016-09-30T23:02:20.637] [930] Leaving _msg_socket_accept
[2016-09-30T23:02:20.637] [930] eio: handling events for 1 objects
[2016-09-30T23:02:20.637] [930] Called _msg_socket_readable
[2016-09-30T23:02:20.637] [930] Entering _handle_accept (new thread)
[2016-09-30T23:02:20.638] [930]   Identity: uid=0, gid=0
[2016-09-30T23:02:20.638] [930] Entering _handle_request
[2016-09-30T23:02:20.639] [930] Got request 5
[2016-09-30T23:02:20.639] [930] Handling REQUEST_STATE
[2016-09-30T23:02:20.639] [930] Leaving  _handle_request: SLURM_SUCCESS
[2016-09-30T23:02:20.639] [930] Entering _handle_request
[2016-09-30T23:02:20.639] debug:  found apparently running job 930
[2016-09-30T23:02:20.640] [930] Leaving  _handle_accept
[2016-09-30T23:02:20.692] debug3: in the service_connection
[2016-09-30T23:02:20.693] debug2: got this type of message 6013
[2016-09-30T23:02:20.693] debug2: Processing RPC: REQUEST_ABORT_JOB
[2016-09-30T23:02:20.694] debug:  _rpc_abort_job, uid = 64030
[2016-09-30T23:02:20.694] debug:  task_slurmd_release_resources: 930
[2016-09-30T23:02:20.694] debug3: state for jobid 930: ctime:1474633733 revoked:0 expires:0
[2016-09-30T23:02:20.694] debug3: state for jobid 934: ctime:1474839186 revoked:1474840473 expires:1474840473
[2016-09-30T23:02:20.694] debug3: destroying job 934 state
[2016-09-30T23:02:20.694] debug3: state for jobid 935: ctime:1474840474 revoked:1474840567 expires:1474840567
[2016-09-30T23:02:20.694] debug3: destroying job 935 state
[2016-09-30T23:02:20.694] debug3: state for jobid 936: ctime:1474840570 revoked:1474840617 expires:1474840617
[2016-09-30T23:02:20.694] debug3: destroying job 936 state
[2016-09-30T23:02:20.694] debug3: state for jobid 937: ctime:1474840618 revoked:1474840672 expires:1474840672
[2016-09-30T23:02:20.694] debug3: destroying job 937 state
[2016-09-30T23:02:20.694] debug3: state for jobid 938: ctime:1474840672 revoked:1474840747 expires:1474840747
[2016-09-30T23:02:20.694] debug3: destroying job 938 state
[2016-09-30T23:02:20.694] debug3: state for jobid 939: ctime:1474840748 revoked:1474840855 expires:1474840855
[2016-09-30T23:02:20.694] debug3: destroying job 939 state
[2016-09-30T23:02:20.694] debug3: state for jobid 940: ctime:1474840883 revoked:1474840969 expires:1474840969
[2016-09-30T23:02:20.694] debug3: destroying job 940 state
[2016-09-30T23:02:20.695] debug:  credential for job 930 revoked
[2016-09-30T23:02:20.696] debug4: found jobid = 930, stepid = 4294967294
[2016-09-30T23:02:20.699] [930] Called _msg_socket_accept
[2016-09-30T23:02:20.699] [930] Leaving _msg_socket_accept
[2016-09-30T23:02:20.699] [930] eio: handling events for 1 objects
[2016-09-30T23:02:20.699] [930] Called _msg_socket_readable
[2016-09-30T23:02:20.700] [930] Entering _handle_accept (new thread)
[2016-09-30T23:02:20.700] [930]   Identity: uid=0, gid=0
[2016-09-30T23:02:20.701] [930] Entering _handle_request
[2016-09-30T23:02:20.701] debug2: container signal 997 to job 930.4294967294
[2016-09-30T23:02:20.701] [930] Got request 4
[2016-09-30T23:02:20.701] [930] Handling REQUEST_SIGNAL_CONTAINER
[2016-09-30T23:02:20.701] [930] _handle_signal_container for step=930.4294967294 uid=0 signal=997
[2016-09-30T23:02:20.701] [930] Myname in build_hashtbl: (slurmstepd)
[2016-09-30T23:02:20.723] [930] Sending signal 9 to pid 649 (python)
[2016-09-30T23:02:20.723] [930] Sending signal 9 to pid 648 (slurm_script)
[2016-09-30T23:02:20.723] [930] Sent signal 9 to 930.4294967294
[2016-09-30T23:02:20.724] debug4: found jobid = 930, stepid = 4294967294
[2016-09-30T23:02:20.724] [930] task 0 (648) exited. Killed by signal 9.
[2016-09-30T23:02:20.725] [930] Called _msg_socket_accept
[2016-09-30T23:02:20.725] [930] task_post_term: 930.4294967294, task 0
[2016-09-30T23:02:20.725] [930] Aggregated 1 task exit messages
[2016-09-30T23:02:20.725] [930] sending task exit msg for 1 tasks
[2016-09-30T23:02:20.725] [930] Leaving _msg_socket_accept
[2016-09-30T23:02:20.725] [930] eio: handling events for 1 objects
[2016-09-30T23:02:20.725] [930] Called _msg_socket_readable
[2016-09-30T23:02:20.725] [930] Leaving  _handle_request: SLURM_SUCCESS
[2016-09-30T23:02:20.726] [930] Entering _handle_request
[2016-09-30T23:02:20.726] [930] Leaving  _handle_accept
[2016-09-30T23:02:20.726] [930] Entering _handle_accept (new thread)
[2016-09-30T23:02:20.727] [930] Myname in build_hashtbl: (slurmstepd)
[2016-09-30T23:02:20.727] [930]   Identity: uid=0, gid=0
[2016-09-30T23:02:20.727] [930] Entering _handle_request
[2016-09-30T23:02:20.728] [930] Got request 5
[2016-09-30T23:02:20.728] [930] Handling REQUEST_STATE
[2016-09-30T23:02:20.728] [930] Leaving  _handle_request: SLURM_SUCCESS
[2016-09-30T23:02:20.728] [930] Entering _handle_request
[2016-09-30T23:02:20.728] [930] Leaving  _handle_accept
[2016-09-30T23:02:20.744] [930] cpu_freq_reset: #cpus reset = 0
[2016-09-30T23:02:20.744] [930] Before call to spank_fini()
[2016-09-30T23:02:20.744] [930] After call to spank_fini()
[2016-09-30T23:02:20.744] [930] eio: handling events for 1 objects
[2016-09-30T23:02:20.744] [930] Called _msg_socket_readable
[2016-09-30T23:02:20.744] [930]   false, shutdown
[2016-09-30T23:02:20.744] [930] Message thread exited
[2016-09-30T23:02:20.745] [930] step 930.4294967294 abort completed
[2016-09-30T23:02:20.745] [930] done with job
[2016-09-30T23:02:20.746] Terminate signal (SIGINT or SIGTERM) received
